[gd_scene load_steps=3 format=3 uid="uid://bfw0bqqd44eu1"]

[ext_resource type="Script" path="res://GUI/slot_gui.gd" id="1_jxmu6"]
[ext_resource type="Texture2D" uid="uid://yaai3lqneqea" path="res://art/inventorySlot.png" id="1_swwuk"]

[node name="Slot" type="Button"]
self_modulate = Color(1, 1, 1, 0)
custom_minimum_size = Vector2(20, 20)
offset_right = 20.0
offset_bottom = 20.0
script = ExtResource("1_jxmu6")

[node name="background" type="Sprite2D" parent="."]
texture = ExtResource("1_swwuk")
centered = false
vframes = 2

[node name="CenterContainer" type="CenterContainer" parent="."]
custom_minimum_size = Vector2(20, 20)
layout_mode = 0
offset_right = 20.0
offset_bottom = 20.0
