[gd_scene load_steps=9 format=3 uid="uid://bc05he4u2bs3"]

[ext_resource type="PackedScene" uid="uid://b5p2fbxj5e18c" path="res://collectables/collectable.tscn" id="1_rt024"]
[ext_resource type="Script" path="res://collectables/sword.gd" id="2_m5ipn"]
[ext_resource type="Texture2D" uid="uid://bnt1600ap6gy5" path="res://art/sword.png" id="2_odanb"]
[ext_resource type="Resource" uid="uid://ci4m38syhnc8f" path="res://inventory/items/sword.tres" id="3_050yv"]

[sub_resource type="RectangleShape2D" id="RectangleShape2D_p85x8"]
resource_local_to_scene = true
size = Vector2(6, 14.9811)

[sub_resource type="Animation" id="Animation_xi34d"]
length = 0.001
tracks/0/type = "value"
tracks/0/imported = false
tracks/0/enabled = true
tracks/0/path = NodePath("Sprite2D:rotation")
tracks/0/interp = 1
tracks/0/loop_wrap = true
tracks/0/keys = {
"times": PackedFloat32Array(0),
"transitions": PackedFloat32Array(1),
"update": 0,
"values": [0.0]
}

[sub_resource type="Animation" id="Animation_htt3e"]
resource_name = "spin"
length = 0.4
tracks/0/type = "value"
tracks/0/imported = false
tracks/0/enabled = true
tracks/0/path = NodePath("Sprite2D:rotation")
tracks/0/interp = 1
tracks/0/loop_wrap = true
tracks/0/keys = {
"times": PackedFloat32Array(0, 0.3),
"transitions": PackedFloat32Array(1, 1),
"update": 0,
"values": [0.0, 6.28319]
}

[sub_resource type="AnimationLibrary" id="AnimationLibrary_d80bb"]
_data = {
"RESET": SubResource("Animation_xi34d"),
"spin": SubResource("Animation_htt3e")
}

[node name="Sword" instance=ExtResource("1_rt024")]
collision_mask = 0
script = ExtResource("2_m5ipn")
itemRes = ExtResource("3_050yv")

[node name="CollisionShape2D" parent="." index="0"]
position = Vector2(0, 0.0252013)
shape = SubResource("RectangleShape2D_p85x8")

[node name="Sprite2D" parent="." index="1"]
texture = ExtResource("2_odanb")

[node name="AnimationPlayer" type="AnimationPlayer" parent="." index="2"]
libraries = {
"": SubResource("AnimationLibrary_d80bb")
}
